<?xml version="1.0" encoding="utf-8"?>
<TestRecord xmlns:xsi="http://www.w3.org/2001/XMLSchema-instance" xmlns:xsd="http://www.w3.org/2001/XMLSchema">
  <Results>
    <UnitTestResult>
      <TestDate>2008-05-19T12:47:42+06:00</TestDate>
      <Status>Success Ignored</Status>
      <TotalFailures>0</TotalFailures>
      <TotalSuccess>58</TotalSuccess>
      <TotalIgnored>6</TotalIgnored>
      <Time />
    </UnitTestResult>
    <UnitTestResult>
      <TestDate>2008-05-19T18:52:40+06:00</TestDate>
      <Status>Success Ignored</Status>
      <TotalFailures>0</TotalFailures>
      <TotalSuccess>59</TotalSuccess>
      <TotalIgnored>6</TotalIgnored>
      <Time />
    </UnitTestResult>
    <UnitTestResult>
      <TestDate>2008-05-19T20:01:13+06:00</TestDate>
      <Status>Success Ignored</Status>
      <TotalFailures>0</TotalFailures>
      <TotalSuccess>60</TotalSuccess>
      <TotalIgnored>5</TotalIgnored>
      <Time />
    </UnitTestResult>
    <UnitTestResult>
      <TestDate>2008-05-19T22:32:48</TestDate>
      <Status>Success Failure Ignored</Status>
      <TotalFailures>1</TotalFailures>
      <TotalSuccess>59</TotalSuccess>
      <TotalIgnored>5</TotalIgnored>
      <Time />
    </UnitTestResult>
  </Results>
  <Tests />
</TestRecord>