<?xml version="1.0" encoding="utf-8"?>
<TestRecord xmlns:xsi="http://www.w3.org/2001/XMLSchema-instance" xmlns:xsd="http://www.w3.org/2001/XMLSchema">
  <Results>
    <UnitTestResult>
      <TestDate>2008-05-16T23:00:10</TestDate>
      <Status>Success Ignored</Status>
      <TotalFailures>0</TotalFailures>
      <TotalSuccess>58</TotalSuccess>
      <TotalIgnored>6</TotalIgnored>
      <Time />
    </UnitTestResult>
    <UnitTestResult>
      <TestDate>2008-05-16T23:00:39</TestDate>
      <Status>Success Ignored</Status>
      <TotalFailures>0</TotalFailures>
      <TotalSuccess>58</TotalSuccess>
      <TotalIgnored>6</TotalIgnored>
      <Time />
    </UnitTestResult>
  </Results>
</TestRecord>