<?xml version="1.0" encoding="utf-8"?>
<TestRecord xmlns:xsi="http://www.w3.org/2001/XMLSchema-instance" xmlns:xsd="http://www.w3.org/2001/XMLSchema">
  <Results>
    <UnitTestResult>
      <TestDate>2008-10-04T07:09:14+06:00</TestDate>
      <Status>Success Failure Ignored</Status>
      <TotalFailures>47</TotalFailures>
      <TotalSuccess>206</TotalSuccess>
      <TotalIgnored>16</TotalIgnored>
      <Time />
    </UnitTestResult>
    <UnitTestResult>
      <TestDate>2008-10-04T13:12:03+06:00</TestDate>
      <Status>Success Ignored</Status>
      <TotalFailures>0</TotalFailures>
      <TotalSuccess>253</TotalSuccess>
      <TotalIgnored>16</TotalIgnored>
      <Time />
    </UnitTestResult>
    <UnitTestResult>
      <TestDate>2008-10-04T20:22:51</TestDate>
      <Status>Success Ignored</Status>
      <TotalFailures>0</TotalFailures>
      <TotalSuccess>253</TotalSuccess>
      <TotalIgnored>16</TotalIgnored>
      <Time />
    </UnitTestResult>
  </Results>
  <Tests />
</TestRecord>