<?xml version="1.0" encoding="utf-8"?>
<TestRecord xmlns:xsi="http://www.w3.org/2001/XMLSchema-instance" xmlns:xsd="http://www.w3.org/2001/XMLSchema">
  <Results>
    <UnitTestResult>
      <TestDate>2008-09-07T18:43:06</TestDate>
      <Status>Success Failure Ignored</Status>
      <TotalFailures>20</TotalFailures>
      <TotalSuccess>194</TotalSuccess>
      <TotalIgnored>12</TotalIgnored>
      <Time />
    </UnitTestResult>
    <UnitTestResult>
      <TestDate>2008-09-07T20:45:30</TestDate>
      <Status>Success Failure Ignored</Status>
      <TotalFailures>20</TotalFailures>
      <TotalSuccess>194</TotalSuccess>
      <TotalIgnored>12</TotalIgnored>
      <Time />
    </UnitTestResult>
  </Results>
</TestRecord>