<?xml version="1.0" encoding="utf-8"?>
<TestRecord xmlns:xsi="http://www.w3.org/2001/XMLSchema-instance" xmlns:xsd="http://www.w3.org/2001/XMLSchema">
  <Results>
    <UnitTestResult>
      <TestDate>2008-09-28T14:50:26</TestDate>
      <Status>Success Failure Ignored</Status>
      <TotalFailures>2</TotalFailures>
      <TotalSuccess>247</TotalSuccess>
      <TotalIgnored>16</TotalIgnored>
      <Time />
    </UnitTestResult>
  </Results>
</TestRecord>