<?xml version="1.0" encoding="utf-8"?>
<TestRecord xmlns:xsi="http://www.w3.org/2001/XMLSchema-instance" xmlns:xsd="http://www.w3.org/2001/XMLSchema">
  <Results>
    <UnitTestResult>
      <TestDate>2008-10-02T13:16:02</TestDate>
      <Status>Success Failure Ignored</Status>
      <TotalFailures>105</TotalFailures>
      <TotalSuccess>145</TotalSuccess>
      <TotalIgnored>16</TotalIgnored>
      <Time />
    </UnitTestResult>
    <UnitTestResult>
      <TestDate>2008-10-02T13:18:14</TestDate>
      <Status>Success Failure Ignored</Status>
      <TotalFailures>2</TotalFailures>
      <TotalSuccess>248</TotalSuccess>
      <TotalIgnored>16</TotalIgnored>
      <Time />
    </UnitTestResult>
    <UnitTestResult>
      <TestDate>2008-10-02T13:27:35</TestDate>
      <Status>Success Ignored</Status>
      <TotalFailures>0</TotalFailures>
      <TotalSuccess>250</TotalSuccess>
      <TotalIgnored>16</TotalIgnored>
      <Time />
    </UnitTestResult>
  </Results>
</TestRecord>