<?xml version="1.0" encoding="utf-8"?>
<TestRecord xmlns:xsi="http://www.w3.org/2001/XMLSchema-instance" xmlns:xsd="http://www.w3.org/2001/XMLSchema">
  <Results>
    <UnitTestResult>
      <TestDate>2008-05-23T23:29:57</TestDate>
      <Status>Success Ignored</Status>
      <TotalFailures>0</TotalFailures>
      <TotalSuccess>66</TotalSuccess>
      <TotalIgnored>5</TotalIgnored>
      <Time />
    </UnitTestResult>
  </Results>
</TestRecord>