<?xml version="1.0" encoding="utf-8"?>
<TestRecord xmlns:xsi="http://www.w3.org/2001/XMLSchema-instance" xmlns:xsd="http://www.w3.org/2001/XMLSchema">
  <Results />
  <Tests>
    <TestRecord Name="AccountTest">
      <Results />
      <Tests>
        <TestRecord Name="PortfolioViewTest">
          <Results>
            <UnitTestResult>
              <TestDate>2008-10-01T17:14:42+06:00</TestDate>
              <Status>Failure</Status>
              <TotalFailures>9</TotalFailures>
              <TotalSuccess>0</TotalSuccess>
              <TotalIgnored>0</TotalIgnored>
              <Time />
            </UnitTestResult>
          </Results>
          <Tests>
            <TestRecord Name="OneAccount">
              <Results>
                <UnitTestResult>
                  <TestDate>2008-10-01T17:14:42+06:00</TestDate>
                  <Status>Failure</Status>
                  <TotalFailures>1</TotalFailures>
                  <TotalSuccess>0</TotalSuccess>
                  <TotalIgnored>0</TotalIgnored>
                  <Time />
                  <Message>Npgsql.NpgsqlException : ERROR: 25P02: current transaction is aborted, commands ignored until end of transaction block</Message>
                  <StackTrace>  at Npgsql.NpgsqlConnector.CheckErrors () [0x00000] 
  at Npgsql.NpgsqlConnector.CheckErrorsAndNotifications () [0x00000] 
  at Npgsql.NpgsqlCommand.ExecuteCommand () [0x00000] 
  at Npgsql.NpgsqlCommand.ExecuteReader (CommandBehavior cb) [0x00000] 
  at Npgsql.NpgsqlCommand.ExecuteReader () [0x00000] 
  at Npgsql.NpgsqlCommand.System.Data.IDbCommand.ExecuteReader () [0x00000] 
  at MPC.Utils.DbGeneralStore.Add_GetIndex (System.String sql) [0x00000] </StackTrace>
                  <ConsoleOutput>[Warn  17:14:44.347] Caught an exception - ERROR: 42703: column "quote_is_percentage" of relation "securities" does not exist (in `Npgsql')
  at Npgsql.NpgsqlConnector.CheckErrors () [0x00000] 
  at Npgsql.NpgsqlConnector.CheckErrorsAndNotifications () [0x00000] 
  at Npgsql.NpgsqlCommand.ExecuteCommand () [0x00000] 
  at Npgsql.NpgsqlCommand.ExecuteNonQuery () [0x00000] 
  at MPC.Utils.DbGeneralStore.OneDbCommandNoResult (System.String _sql) [0x00000] 
[Warn  17:14:44.356] Caught an exception - ERROR: 25P02: current transaction is aborted, commands ignored until end of transaction block (in `Npgsql')
  at Npgsql.NpgsqlConnector.CheckErrors () [0x00000] 
  at Npgsql.NpgsqlConnector.CheckErrorsAndNotifications () [0x00000] 
  at Npgsql.NpgsqlCommand.ExecuteCommand () [0x00000] 
  at Npgsql.NpgsqlCommand.ExecuteReader (CommandBehavior cb) [0x00000] 
  at Npgsql.NpgsqlCommand.ExecuteReader () [0x00000] 
  at Npgsql.NpgsqlCommand.System.Data.IDbCommand.ExecuteReader () [0x00000] 
  at MPC.Utils.DbGeneralStore.Add_GetIndex (System.String sql) [0x00000] 
</ConsoleOutput>
                  <ConsoleError />
                </UnitTestResult>
              </Results>
              <Tests />
            </TestRecord>
            <TestRecord Name="OneAccountNoBase">
              <Results>
                <UnitTestResult>
                  <TestDate>2008-10-01T17:14:42+06:00</TestDate>
                  <Status>Failure</Status>
                  <TotalFailures>1</TotalFailures>
                  <TotalSuccess>0</TotalSuccess>
                  <TotalIgnored>0</TotalIgnored>
                  <Time />
                  <Message>Npgsql.NpgsqlException : ERROR: 25P02: current transaction is aborted, commands ignored until end of transaction block</Message>
                  <StackTrace>  at Npgsql.NpgsqlConnector.CheckErrors () [0x00000] 
  at Npgsql.NpgsqlConnector.CheckErrorsAndNotifications () [0x00000] 
  at Npgsql.NpgsqlCommand.ExecuteCommand () [0x00000] 
  at Npgsql.NpgsqlCommand.ExecuteReader (CommandBehavior cb) [0x00000] 
  at Npgsql.NpgsqlCommand.ExecuteReader () [0x00000] 
  at Npgsql.NpgsqlCommand.System.Data.IDbCommand.ExecuteReader () [0x00000] 
  at MPC.Utils.DbGeneralStore.Add_GetIndex (System.String sql) [0x00000] </StackTrace>
                  <ConsoleOutput>[Warn  17:14:44.924] Caught an exception - ERROR: 42703: column "quote_is_percentage" of relation "securities" does not exist (in `Npgsql')
  at Npgsql.NpgsqlConnector.CheckErrors () [0x00000] 
  at Npgsql.NpgsqlConnector.CheckErrorsAndNotifications () [0x00000] 
  at Npgsql.NpgsqlCommand.ExecuteCommand () [0x00000] 
  at Npgsql.NpgsqlCommand.ExecuteNonQuery () [0x00000] 
  at MPC.Utils.DbGeneralStore.OneDbCommandNoResult (System.String _sql) [0x00000] 
[Warn  17:14:44.924] Caught an exception - ERROR: 25P02: current transaction is aborted, commands ignored until end of transaction block (in `Npgsql')
  at Npgsql.NpgsqlConnector.CheckErrors () [0x00000] 
  at Npgsql.NpgsqlConnector.CheckErrorsAndNotifications () [0x00000] 
  at Npgsql.NpgsqlCommand.ExecuteCommand () [0x00000] 
  at Npgsql.NpgsqlCommand.ExecuteReader (CommandBehavior cb) [0x00000] 
  at Npgsql.NpgsqlCommand.ExecuteReader () [0x00000] 
  at Npgsql.NpgsqlCommand.System.Data.IDbCommand.ExecuteReader () [0x00000] 
  at MPC.Utils.DbGeneralStore.Add_GetIndex (System.String sql) [0x00000] 
</ConsoleOutput>
                  <ConsoleError />
                </UnitTestResult>
              </Results>
              <Tests />
            </TestRecord>
            <TestRecord Name="OneAccountOneBase">
              <Results>
                <UnitTestResult>
                  <TestDate>2008-10-01T17:14:42+06:00</TestDate>
                  <Status>Failure</Status>
                  <TotalFailures>1</TotalFailures>
                  <TotalSuccess>0</TotalSuccess>
                  <TotalIgnored>0</TotalIgnored>
                  <Time />
                  <Message>Npgsql.NpgsqlException : ERROR: 25P02: current transaction is aborted, commands ignored until end of transaction block</Message>
                  <StackTrace>  at Npgsql.NpgsqlConnector.CheckErrors () [0x00000] 
  at Npgsql.NpgsqlConnector.CheckErrorsAndNotifications () [0x00000] 
  at Npgsql.NpgsqlCommand.ExecuteCommand () [0x00000] 
  at Npgsql.NpgsqlCommand.ExecuteReader (CommandBehavior cb) [0x00000] 
  at Npgsql.NpgsqlCommand.ExecuteReader () [0x00000] 
  at Npgsql.NpgsqlCommand.System.Data.IDbCommand.ExecuteReader () [0x00000] 
  at MPC.Utils.DbGeneralStore.Add_GetIndex (System.String sql) [0x00000] </StackTrace>
                  <ConsoleOutput>[Warn  17:14:45.334] Caught an exception - ERROR: 42703: column "quote_is_percentage" of relation "securities" does not exist (in `Npgsql')
  at Npgsql.NpgsqlConnector.CheckErrors () [0x00000] 
  at Npgsql.NpgsqlConnector.CheckErrorsAndNotifications () [0x00000] 
  at Npgsql.NpgsqlCommand.ExecuteCommand () [0x00000] 
  at Npgsql.NpgsqlCommand.ExecuteNonQuery () [0x00000] 
  at MPC.Utils.DbGeneralStore.OneDbCommandNoResult (System.String _sql) [0x00000] 
[Warn  17:14:45.334] Caught an exception - ERROR: 25P02: current transaction is aborted, commands ignored until end of transaction block (in `Npgsql')
  at Npgsql.NpgsqlConnector.CheckErrors () [0x00000] 
  at Npgsql.NpgsqlConnector.CheckErrorsAndNotifications () [0x00000] 
  at Npgsql.NpgsqlCommand.ExecuteCommand () [0x00000] 
  at Npgsql.NpgsqlCommand.ExecuteReader (CommandBehavior cb) [0x00000] 
  at Npgsql.NpgsqlCommand.ExecuteReader () [0x00000] 
  at Npgsql.NpgsqlCommand.System.Data.IDbCommand.ExecuteReader () [0x00000] 
  at MPC.Utils.DbGeneralStore.Add_GetIndex (System.String sql) [0x00000] 
</ConsoleOutput>
                  <ConsoleError />
                </UnitTestResult>
              </Results>
              <Tests />
            </TestRecord>
            <TestRecord Name="Simple_AccountView">
              <Results>
                <UnitTestResult>
                  <TestDate>2008-10-01T17:14:42+06:00</TestDate>
                  <Status>Failure</Status>
                  <TotalFailures>1</TotalFailures>
                  <TotalSuccess>0</TotalSuccess>
                  <TotalIgnored>0</TotalIgnored>
                  <Time />
                  <Message>Npgsql.NpgsqlException : ERROR: 25P02: current transaction is aborted, commands ignored until end of transaction block</Message>
                  <StackTrace>  at Npgsql.NpgsqlConnector.CheckErrors () [0x00000] 
  at Npgsql.NpgsqlConnector.CheckErrorsAndNotifications () [0x00000] 
  at Npgsql.NpgsqlCommand.ExecuteCommand () [0x00000] 
  at Npgsql.NpgsqlCommand.ExecuteReader (CommandBehavior cb) [0x00000] 
  at Npgsql.NpgsqlCommand.ExecuteReader () [0x00000] 
  at Npgsql.NpgsqlCommand.System.Data.IDbCommand.ExecuteReader () [0x00000] 
  at MPC.Utils.DbGeneralStore.Add_GetIndex (System.String sql) [0x00000] </StackTrace>
                  <ConsoleOutput>[Warn  17:14:45.695] Caught an exception - ERROR: 42703: column "quote_is_percentage" of relation "securities" does not exist (in `Npgsql')
  at Npgsql.NpgsqlConnector.CheckErrors () [0x00000] 
  at Npgsql.NpgsqlConnector.CheckErrorsAndNotifications () [0x00000] 
  at Npgsql.NpgsqlCommand.ExecuteCommand () [0x00000] 
  at Npgsql.NpgsqlCommand.ExecuteNonQuery () [0x00000] 
  at MPC.Utils.DbGeneralStore.OneDbCommandNoResult (System.String _sql) [0x00000] 
[Warn  17:14:45.696] Caught an exception - ERROR: 25P02: current transaction is aborted, commands ignored until end of transaction block (in `Npgsql')
  at Npgsql.NpgsqlConnector.CheckErrors () [0x00000] 
  at Npgsql.NpgsqlConnector.CheckErrorsAndNotifications () [0x00000] 
  at Npgsql.NpgsqlCommand.ExecuteCommand () [0x00000] 
  at Npgsql.NpgsqlCommand.ExecuteReader (CommandBehavior cb) [0x00000] 
  at Npgsql.NpgsqlCommand.ExecuteReader () [0x00000] 
  at Npgsql.NpgsqlCommand.System.Data.IDbCommand.ExecuteReader () [0x00000] 
  at MPC.Utils.DbGeneralStore.Add_GetIndex (System.String sql) [0x00000] 
</ConsoleOutput>
                  <ConsoleError />
                </UnitTestResult>
              </Results>
              <Tests />
            </TestRecord>
            <TestRecord Name="Simple_AccountViewBaseCurrency">
              <Results>
                <UnitTestResult>
                  <TestDate>2008-10-01T17:14:42+06:00</TestDate>
                  <Status>Failure</Status>
                  <TotalFailures>1</TotalFailures>
                  <TotalSuccess>0</TotalSuccess>
                  <TotalIgnored>0</TotalIgnored>
                  <Time />
                  <Message>Npgsql.NpgsqlException : ERROR: 25P02: current transaction is aborted, commands ignored until end of transaction block</Message>
                  <StackTrace>  at Npgsql.NpgsqlConnector.CheckErrors () [0x00000] 
  at Npgsql.NpgsqlConnector.CheckErrorsAndNotifications () [0x00000] 
  at Npgsql.NpgsqlCommand.ExecuteCommand () [0x00000] 
  at Npgsql.NpgsqlCommand.ExecuteReader (CommandBehavior cb) [0x00000] 
  at Npgsql.NpgsqlCommand.ExecuteReader () [0x00000] 
  at Npgsql.NpgsqlCommand.System.Data.IDbCommand.ExecuteReader () [0x00000] 
  at MPC.Utils.DbGeneralStore.Add_GetIndex (System.String sql) [0x00000] </StackTrace>
                  <ConsoleOutput>[Warn  17:14:46.038] Caught an exception - ERROR: 42703: column "quote_is_percentage" of relation "securities" does not exist (in `Npgsql')
  at Npgsql.NpgsqlConnector.CheckErrors () [0x00000] 
  at Npgsql.NpgsqlConnector.CheckErrorsAndNotifications () [0x00000] 
  at Npgsql.NpgsqlCommand.ExecuteCommand () [0x00000] 
  at Npgsql.NpgsqlCommand.ExecuteNonQuery () [0x00000] 
  at MPC.Utils.DbGeneralStore.OneDbCommandNoResult (System.String _sql) [0x00000] 
[Warn  17:14:46.038] Caught an exception - ERROR: 25P02: current transaction is aborted, commands ignored until end of transaction block (in `Npgsql')
  at Npgsql.NpgsqlConnector.CheckErrors () [0x00000] 
  at Npgsql.NpgsqlConnector.CheckErrorsAndNotifications () [0x00000] 
  at Npgsql.NpgsqlCommand.ExecuteCommand () [0x00000] 
  at Npgsql.NpgsqlCommand.ExecuteReader (CommandBehavior cb) [0x00000] 
  at Npgsql.NpgsqlCommand.ExecuteReader () [0x00000] 
  at Npgsql.NpgsqlCommand.System.Data.IDbCommand.ExecuteReader () [0x00000] 
  at MPC.Utils.DbGeneralStore.Add_GetIndex (System.String sql) [0x00000] 
</ConsoleOutput>
                  <ConsoleError />
                </UnitTestResult>
              </Results>
              <Tests />
            </TestRecord>
            <TestRecord Name="Simple_SecurityView">
              <Results>
                <UnitTestResult>
                  <TestDate>2008-10-01T17:14:42+06:00</TestDate>
                  <Status>Failure</Status>
                  <TotalFailures>1</TotalFailures>
                  <TotalSuccess>0</TotalSuccess>
                  <TotalIgnored>0</TotalIgnored>
                  <Time />
                  <Message>Npgsql.NpgsqlException : ERROR: 25P02: current transaction is aborted, commands ignored until end of transaction block</Message>
                  <StackTrace>  at Npgsql.NpgsqlConnector.CheckErrors () [0x00000] 
  at Npgsql.NpgsqlConnector.CheckErrorsAndNotifications () [0x00000] 
  at Npgsql.NpgsqlCommand.ExecuteCommand () [0x00000] 
  at Npgsql.NpgsqlCommand.ExecuteReader (CommandBehavior cb) [0x00000] 
  at Npgsql.NpgsqlCommand.ExecuteReader () [0x00000] 
  at Npgsql.NpgsqlCommand.System.Data.IDbCommand.ExecuteReader () [0x00000] 
  at MPC.Utils.DbGeneralStore.Add_GetIndex (System.String sql) [0x00000] </StackTrace>
                  <ConsoleOutput>[Warn  17:14:46.464] Caught an exception - ERROR: 42703: column "quote_is_percentage" of relation "securities" does not exist (in `Npgsql')
  at Npgsql.NpgsqlConnector.CheckErrors () [0x00000] 
  at Npgsql.NpgsqlConnector.CheckErrorsAndNotifications () [0x00000] 
  at Npgsql.NpgsqlCommand.ExecuteCommand () [0x00000] 
  at Npgsql.NpgsqlCommand.ExecuteNonQuery () [0x00000] 
  at MPC.Utils.DbGeneralStore.OneDbCommandNoResult (System.String _sql) [0x00000] 
[Warn  17:14:46.464] Caught an exception - ERROR: 25P02: current transaction is aborted, commands ignored until end of transaction block (in `Npgsql')
  at Npgsql.NpgsqlConnector.CheckErrors () [0x00000] 
  at Npgsql.NpgsqlConnector.CheckErrorsAndNotifications () [0x00000] 
  at Npgsql.NpgsqlCommand.ExecuteCommand () [0x00000] 
  at Npgsql.NpgsqlCommand.ExecuteReader (CommandBehavior cb) [0x00000] 
  at Npgsql.NpgsqlCommand.ExecuteReader () [0x00000] 
  at Npgsql.NpgsqlCommand.System.Data.IDbCommand.ExecuteReader () [0x00000] 
  at MPC.Utils.DbGeneralStore.Add_GetIndex (System.String sql) [0x00000] 
</ConsoleOutput>
                  <ConsoleError />
                </UnitTestResult>
              </Results>
              <Tests />
            </TestRecord>
            <TestRecord Name="AccountView">
              <Results>
                <UnitTestResult>
                  <TestDate>2008-10-01T17:14:42+06:00</TestDate>
                  <Status>Failure</Status>
                  <TotalFailures>1</TotalFailures>
                  <TotalSuccess>0</TotalSuccess>
                  <TotalIgnored>0</TotalIgnored>
                  <Time />
                  <Message>Npgsql.NpgsqlException : ERROR: 25P02: current transaction is aborted, commands ignored until end of transaction block</Message>
                  <StackTrace>  at Npgsql.NpgsqlConnector.CheckErrors () [0x00000] 
  at Npgsql.NpgsqlConnector.CheckErrorsAndNotifications () [0x00000] 
  at Npgsql.NpgsqlCommand.ExecuteCommand () [0x00000] 
  at Npgsql.NpgsqlCommand.ExecuteReader (CommandBehavior cb) [0x00000] 
  at Npgsql.NpgsqlCommand.ExecuteReader () [0x00000] 
  at Npgsql.NpgsqlCommand.System.Data.IDbCommand.ExecuteReader () [0x00000] 
  at MPC.Utils.DbGeneralStore.Add_GetIndex (System.String sql) [0x00000] </StackTrace>
                  <ConsoleOutput>[Warn  17:14:46.897] Caught an exception - ERROR: 42703: column "quote_is_percentage" of relation "securities" does not exist (in `Npgsql')
  at Npgsql.NpgsqlConnector.CheckErrors () [0x00000] 
  at Npgsql.NpgsqlConnector.CheckErrorsAndNotifications () [0x00000] 
  at Npgsql.NpgsqlCommand.ExecuteCommand () [0x00000] 
  at Npgsql.NpgsqlCommand.ExecuteNonQuery () [0x00000] 
  at MPC.Utils.DbGeneralStore.OneDbCommandNoResult (System.String _sql) [0x00000] 
[Warn  17:14:46.897] Caught an exception - ERROR: 25P02: current transaction is aborted, commands ignored until end of transaction block (in `Npgsql')
  at Npgsql.NpgsqlConnector.CheckErrors () [0x00000] 
  at Npgsql.NpgsqlConnector.CheckErrorsAndNotifications () [0x00000] 
  at Npgsql.NpgsqlCommand.ExecuteCommand () [0x00000] 
  at Npgsql.NpgsqlCommand.ExecuteReader (CommandBehavior cb) [0x00000] 
  at Npgsql.NpgsqlCommand.ExecuteReader () [0x00000] 
  at Npgsql.NpgsqlCommand.System.Data.IDbCommand.ExecuteReader () [0x00000] 
  at MPC.Utils.DbGeneralStore.Add_GetIndex (System.String sql) [0x00000] 
</ConsoleOutput>
                  <ConsoleError />
                </UnitTestResult>
              </Results>
              <Tests />
            </TestRecord>
            <TestRecord Name="SecurityView">
              <Results>
                <UnitTestResult>
                  <TestDate>2008-10-01T17:14:42+06:00</TestDate>
                  <Status>Failure</Status>
                  <TotalFailures>1</TotalFailures>
                  <TotalSuccess>0</TotalSuccess>
                  <TotalIgnored>0</TotalIgnored>
                  <Time />
                  <Message>Npgsql.NpgsqlException : ERROR: 25P02: current transaction is aborted, commands ignored until end of transaction block</Message>
                  <StackTrace>  at Npgsql.NpgsqlConnector.CheckErrors () [0x00000] 
  at Npgsql.NpgsqlConnector.CheckErrorsAndNotifications () [0x00000] 
  at Npgsql.NpgsqlCommand.ExecuteCommand () [0x00000] 
  at Npgsql.NpgsqlCommand.ExecuteReader (CommandBehavior cb) [0x00000] 
  at Npgsql.NpgsqlCommand.ExecuteReader () [0x00000] 
  at Npgsql.NpgsqlCommand.System.Data.IDbCommand.ExecuteReader () [0x00000] 
  at MPC.Utils.DbGeneralStore.Add_GetIndex (System.String sql) [0x00000] </StackTrace>
                  <ConsoleOutput>[Warn  17:14:47.324] Caught an exception - ERROR: 42703: column "quote_is_percentage" of relation "securities" does not exist (in `Npgsql')
  at Npgsql.NpgsqlConnector.CheckErrors () [0x00000] 
  at Npgsql.NpgsqlConnector.CheckErrorsAndNotifications () [0x00000] 
  at Npgsql.NpgsqlCommand.ExecuteCommand () [0x00000] 
  at Npgsql.NpgsqlCommand.ExecuteNonQuery () [0x00000] 
  at MPC.Utils.DbGeneralStore.OneDbCommandNoResult (System.String _sql) [0x00000] 
[Warn  17:14:47.324] Caught an exception - ERROR: 25P02: current transaction is aborted, commands ignored until end of transaction block (in `Npgsql')
  at Npgsql.NpgsqlConnector.CheckErrors () [0x00000] 
  at Npgsql.NpgsqlConnector.CheckErrorsAndNotifications () [0x00000] 
  at Npgsql.NpgsqlCommand.ExecuteCommand () [0x00000] 
  at Npgsql.NpgsqlCommand.ExecuteReader (CommandBehavior cb) [0x00000] 
  at Npgsql.NpgsqlCommand.ExecuteReader () [0x00000] 
  at Npgsql.NpgsqlCommand.System.Data.IDbCommand.ExecuteReader () [0x00000] 
  at MPC.Utils.DbGeneralStore.Add_GetIndex (System.String sql) [0x00000] 
</ConsoleOutput>
                  <ConsoleError />
                </UnitTestResult>
              </Results>
              <Tests />
            </TestRecord>
            <TestRecord Name="TwoAccounts_TwoSecurities">
              <Results>
                <UnitTestResult>
                  <TestDate>2008-10-01T17:14:42+06:00</TestDate>
                  <Status>Failure</Status>
                  <TotalFailures>1</TotalFailures>
                  <TotalSuccess>0</TotalSuccess>
                  <TotalIgnored>0</TotalIgnored>
                  <Time />
                  <Message>Npgsql.NpgsqlException : ERROR: 25P02: current transaction is aborted, commands ignored until end of transaction block</Message>
                  <StackTrace>  at Npgsql.NpgsqlConnector.CheckErrors () [0x00000] 
  at Npgsql.NpgsqlConnector.CheckErrorsAndNotifications () [0x00000] 
  at Npgsql.NpgsqlCommand.ExecuteCommand () [0x00000] 
  at Npgsql.NpgsqlCommand.ExecuteReader (CommandBehavior cb) [0x00000] 
  at Npgsql.NpgsqlCommand.ExecuteReader () [0x00000] 
  at Npgsql.NpgsqlCommand.System.Data.IDbCommand.ExecuteReader () [0x00000] 
  at MPC.Utils.DbGeneralStore.Add_GetIndex (System.String sql) [0x00000] </StackTrace>
                  <ConsoleOutput>[Warn  17:14:47.814] Caught an exception - ERROR: 42703: column "quote_is_percentage" of relation "securities" does not exist (in `Npgsql')
  at Npgsql.NpgsqlConnector.CheckErrors () [0x00000] 
  at Npgsql.NpgsqlConnector.CheckErrorsAndNotifications () [0x00000] 
  at Npgsql.NpgsqlCommand.ExecuteCommand () [0x00000] 
  at Npgsql.NpgsqlCommand.ExecuteNonQuery () [0x00000] 
  at MPC.Utils.DbGeneralStore.OneDbCommandNoResult (System.String _sql) [0x00000] 
[Warn  17:14:47.814] Caught an exception - ERROR: 25P02: current transaction is aborted, commands ignored until end of transaction block (in `Npgsql')
  at Npgsql.NpgsqlConnector.CheckErrors () [0x00000] 
  at Npgsql.NpgsqlConnector.CheckErrorsAndNotifications () [0x00000] 
  at Npgsql.NpgsqlCommand.ExecuteCommand () [0x00000] 
  at Npgsql.NpgsqlCommand.ExecuteReader (CommandBehavior cb) [0x00000] 
  at Npgsql.NpgsqlCommand.ExecuteReader () [0x00000] 
  at Npgsql.NpgsqlCommand.System.Data.IDbCommand.ExecuteReader () [0x00000] 
  at MPC.Utils.DbGeneralStore.Add_GetIndex (System.String sql) [0x00000] 
</ConsoleOutput>
                  <ConsoleError />
                </UnitTestResult>
              </Results>
              <Tests />
            </TestRecord>
          </Tests>
        </TestRecord>
        <TestRecord Name="PortfolioEntryTest">
          <Results>
            <UnitTestResult>
              <TestDate>2008-10-01T17:14:49+06:00</TestDate>
              <Status>Success Failure</Status>
              <TotalFailures>1</TotalFailures>
              <TotalSuccess>7</TotalSuccess>
              <TotalIgnored>0</TotalIgnored>
              <Time />
            </UnitTestResult>
          </Results>
          <Tests>
            <TestRecord Name="Gav_0_shares">
              <Results>
                <UnitTestResult>
                  <TestDate>2008-10-01T17:14:49+06:00</TestDate>
                  <Status>Success</Status>
                  <TotalFailures>0</TotalFailures>
                  <TotalSuccess>1</TotalSuccess>
                  <TotalIgnored>0</TotalIgnored>
                  <Time />
                  <ConsoleOutput />
                  <ConsoleError />
                </UnitTestResult>
              </Results>
              <Tests />
            </TestRecord>
            <TestRecord Name="Gav">
              <Results>
                <UnitTestResult>
                  <TestDate>2008-10-01T17:14:49+06:00</TestDate>
                  <Status>Success</Status>
                  <TotalFailures>0</TotalFailures>
                  <TotalSuccess>1</TotalSuccess>
                  <TotalIgnored>0</TotalIgnored>
                  <Time />
                  <ConsoleOutput />
                  <ConsoleError />
                </UnitTestResult>
              </Results>
              <Tests />
            </TestRecord>
            <TestRecord Name="Value">
              <Results>
                <UnitTestResult>
                  <TestDate>2008-10-01T17:14:49+06:00</TestDate>
                  <Status>Success</Status>
                  <TotalFailures>0</TotalFailures>
                  <TotalSuccess>1</TotalSuccess>
                  <TotalIgnored>0</TotalIgnored>
                  <Time />
                  <ConsoleOutput />
                  <ConsoleError />
                </UnitTestResult>
                <UnitTestResult>
                  <TestDate>2008-10-01T17:16:07+06:00</TestDate>
                  <Status>Success</Status>
                  <TotalFailures>0</TotalFailures>
                  <TotalSuccess>1</TotalSuccess>
                  <TotalIgnored>0</TotalIgnored>
                  <Time />
                  <ConsoleOutput />
                  <ConsoleError />
                </UnitTestResult>
                <UnitTestResult>
                  <TestDate>2008-10-01T17:23:28</TestDate>
                  <Status>Success</Status>
                  <TotalFailures>0</TotalFailures>
                  <TotalSuccess>1</TotalSuccess>
                  <TotalIgnored>0</TotalIgnored>
                  <Time />
                  <ConsoleOutput>QuoteIsPercentage = False
Quote value = 20
Number of shares = 2000
Value = 40000
</ConsoleOutput>
                  <ConsoleError />
                </UnitTestResult>
              </Results>
              <Tests />
            </TestRecord>
            <TestRecord Name="Value_QuoteIsPercent">
              <Results>
                <UnitTestResult>
                  <TestDate>2008-10-01T17:14:49+06:00</TestDate>
                  <Status>Failure</Status>
                  <TotalFailures>1</TotalFailures>
                  <TotalSuccess>0</TotalSuccess>
                  <TotalIgnored>0</TotalIgnored>
                  <Time />
                  <Message>
	expected: &lt;1600.00&gt;
	 but was: &lt;0&gt;</Message>
                  <StackTrace>  at NUnit.Framework.Assert.DoAssert (IAsserter asserter) [0x00000] 
  at NUnit.Framework.Assert.AreEqual (Decimal expected, Decimal actual, System.String message, System.Object[] args) [0x00000] 
  at NUnit.Framework.Assert.AreEqual (Decimal expected, Decimal actual) [0x00000] 
  at AccountTest.PortfolioEntryTest.Value_QuoteIsPercent () [0x00000] 
  at (wrapper managed-to-native) System.Reflection.MonoMethod:InternalInvoke (object,object[])
  at System.Reflection.MonoMethod.Invoke (System.Object obj, BindingFlags invokeAttr, System.Reflection.Binder binder, System.Object[] parameters, System.Globalization.CultureInfo culture) [0x00000] </StackTrace>
                  <ConsoleOutput />
                  <ConsoleError />
                </UnitTestResult>
                <UnitTestResult>
                  <TestDate>2008-10-01T17:14:51+06:00</TestDate>
                  <Status>Failure</Status>
                  <TotalFailures>1</TotalFailures>
                  <TotalSuccess>0</TotalSuccess>
                  <TotalIgnored>0</TotalIgnored>
                  <Time />
                  <Message>
	expected: &lt;1600.00&gt;
	 but was: &lt;0&gt;</Message>
                  <StackTrace>  at NUnit.Framework.Assert.DoAssert (IAsserter asserter) [0x00000] 
  at NUnit.Framework.Assert.AreEqual (Decimal expected, Decimal actual, System.String message, System.Object[] args) [0x00000] 
  at NUnit.Framework.Assert.AreEqual (Decimal expected, Decimal actual) [0x00000] 
  at AccountTest.PortfolioEntryTest.Value_QuoteIsPercent () [0x00000] 
  at (wrapper managed-to-native) System.Reflection.MonoMethod:InternalInvoke (object,object[])
  at System.Reflection.MonoMethod.Invoke (System.Object obj, BindingFlags invokeAttr, System.Reflection.Binder binder, System.Object[] parameters, System.Globalization.CultureInfo culture) [0x00000] </StackTrace>
                  <ConsoleOutput />
                  <ConsoleError />
                </UnitTestResult>
                <UnitTestResult>
                  <TestDate>2008-10-01T17:16:15+06:00</TestDate>
                  <Status>Failure</Status>
                  <TotalFailures>1</TotalFailures>
                  <TotalSuccess>0</TotalSuccess>
                  <TotalIgnored>0</TotalIgnored>
                  <Time />
                  <Message>
	expected: &lt;1600.00&gt;
	 but was: &lt;0&gt;</Message>
                  <StackTrace>  at NUnit.Framework.Assert.DoAssert (IAsserter asserter) [0x00000] 
  at NUnit.Framework.Assert.AreEqual (Decimal expected, Decimal actual, System.String message, System.Object[] args) [0x00000] 
  at NUnit.Framework.Assert.AreEqual (Decimal expected, Decimal actual) [0x00000] 
  at AccountTest.PortfolioEntryTest.Value_QuoteIsPercent () [0x00000] 
  at (wrapper managed-to-native) System.Reflection.MonoMethod:InternalInvoke (object,object[])
  at System.Reflection.MonoMethod.Invoke (System.Object obj, BindingFlags invokeAttr, System.Reflection.Binder binder, System.Object[] parameters, System.Globalization.CultureInfo culture) [0x00000] </StackTrace>
                  <ConsoleOutput />
                  <ConsoleError />
                </UnitTestResult>
                <UnitTestResult>
                  <TestDate>2008-10-01T17:23:22</TestDate>
                  <Status>Failure</Status>
                  <TotalFailures>1</TotalFailures>
                  <TotalSuccess>0</TotalSuccess>
                  <TotalIgnored>0</TotalIgnored>
                  <Time />
                  <Message>
	expected: &lt;1600.00&gt;
	 but was: &lt;0&gt;</Message>
                  <StackTrace>  at NUnit.Framework.Assert.DoAssert (IAsserter asserter) [0x00000] 
  at NUnit.Framework.Assert.AreEqual (Decimal expected, Decimal actual, System.String message, System.Object[] args) [0x00000] 
  at NUnit.Framework.Assert.AreEqual (Decimal expected, Decimal actual) [0x00000] 
  at AccountTest.PortfolioEntryTest.Value_QuoteIsPercent () [0x00000] 
  at (wrapper managed-to-native) System.Reflection.MonoMethod:InternalInvoke (object,object[])
  at System.Reflection.MonoMethod.Invoke (System.Object obj, BindingFlags invokeAttr, System.Reflection.Binder binder, System.Object[] parameters, System.Globalization.CultureInfo culture) [0x00000] </StackTrace>
                  <ConsoleOutput>QuoteIsPercentage = True
Quote value = 80
Number of shares = 2000
Value = 0
</ConsoleOutput>
                  <ConsoleError />
                </UnitTestResult>
                <UnitTestResult>
                  <TestDate>2008-10-01T17:23:48</TestDate>
                  <Status>Failure</Status>
                  <TotalFailures>1</TotalFailures>
                  <TotalSuccess>0</TotalSuccess>
                  <TotalIgnored>0</TotalIgnored>
                  <Time />
                  <Message>
	expected: &lt;1600.00&gt;
	 but was: &lt;0&gt;</Message>
                  <StackTrace>  at NUnit.Framework.Assert.DoAssert (IAsserter asserter) [0x00000] 
  at NUnit.Framework.Assert.AreEqual (Decimal expected, Decimal actual, System.String message, System.Object[] args) [0x00000] 
  at NUnit.Framework.Assert.AreEqual (Decimal expected, Decimal actual) [0x00000] 
  at AccountTest.PortfolioEntryTest.Value_QuoteIsPercent () [0x00000] 
  at (wrapper managed-to-native) System.Reflection.MonoMethod:InternalInvoke (object,object[])
  at System.Reflection.MonoMethod.Invoke (System.Object obj, BindingFlags invokeAttr, System.Reflection.Binder binder, System.Object[] parameters, System.Globalization.CultureInfo culture) [0x00000] </StackTrace>
                  <ConsoleOutput>QuoteIsPercentage = True
Quote value = 80
Number of shares = 2000
Value = 0
</ConsoleOutput>
                  <ConsoleError />
                </UnitTestResult>
                <UnitTestResult>
                  <TestDate>2008-10-01T17:24:54</TestDate>
                  <Status>Failure</Status>
                  <TotalFailures>1</TotalFailures>
                  <TotalSuccess>0</TotalSuccess>
                  <TotalIgnored>0</TotalIgnored>
                  <Time />
                  <Message>
	expected: &lt;1600.00&gt;
	 but was: &lt;0&gt;</Message>
                  <StackTrace>  at NUnit.Framework.Assert.DoAssert (IAsserter asserter) [0x00000] 
  at NUnit.Framework.Assert.AreEqual (Decimal expected, Decimal actual, System.String message, System.Object[] args) [0x00000] 
  at NUnit.Framework.Assert.AreEqual (Decimal expected, Decimal actual) [0x00000] 
  at AccountTest.PortfolioEntryTest.Value_QuoteIsPercent () [0x00000] 
  at (wrapper managed-to-native) System.Reflection.MonoMethod:InternalInvoke (object,object[])
  at System.Reflection.MonoMethod.Invoke (System.Object obj, BindingFlags invokeAttr, System.Reflection.Binder binder, System.Object[] parameters, System.Globalization.CultureInfo culture) [0x00000] </StackTrace>
                  <ConsoleOutput>QuoteIsPercentage = True
Quote value = 80
Number of shares = 2000
Value1 = 0
Value2 = 160000
Value = 0
</ConsoleOutput>
                  <ConsoleError />
                </UnitTestResult>
                <UnitTestResult>
                  <TestDate>2008-10-01T17:25:40</TestDate>
                  <Status>Failure</Status>
                  <TotalFailures>1</TotalFailures>
                  <TotalSuccess>0</TotalSuccess>
                  <TotalIgnored>0</TotalIgnored>
                  <Time />
                  <Message>
	expected: &lt;1600.00&gt;
	 but was: &lt;0&gt;</Message>
                  <StackTrace>  at NUnit.Framework.Assert.DoAssert (IAsserter asserter) [0x00000] 
  at NUnit.Framework.Assert.AreEqual (Decimal expected, Decimal actual, System.String message, System.Object[] args) [0x00000] 
  at NUnit.Framework.Assert.AreEqual (Decimal expected, Decimal actual) [0x00000] 
  at AccountTest.PortfolioEntryTest.Value_QuoteIsPercent () [0x00000] 
  at (wrapper managed-to-native) System.Reflection.MonoMethod:InternalInvoke (object,object[])
  at System.Reflection.MonoMethod.Invoke (System.Object obj, BindingFlags invokeAttr, System.Reflection.Binder binder, System.Object[] parameters, System.Globalization.CultureInfo culture) [0x00000] </StackTrace>
                  <ConsoleOutput>QuoteIsPercentage = True
Quote value = 80
Number of shares = 2000
Value1 = 1600.0000000000000000000000000
Value2 = 160000
Value = 0
</ConsoleOutput>
                  <ConsoleError />
                </UnitTestResult>
                <UnitTestResult>
                  <TestDate>2008-10-01T17:25:56</TestDate>
                  <Status>Failure</Status>
                  <TotalFailures>1</TotalFailures>
                  <TotalSuccess>0</TotalSuccess>
                  <TotalIgnored>0</TotalIgnored>
                  <Time />
                  <Message>
	expected: &lt;1600.00&gt;
	 but was: &lt;0&gt;</Message>
                  <StackTrace>  at NUnit.Framework.Assert.DoAssert (IAsserter asserter) [0x00000] 
  at NUnit.Framework.Assert.AreEqual (Decimal expected, Decimal actual, System.String message, System.Object[] args) [0x00000] 
  at NUnit.Framework.Assert.AreEqual (Decimal expected, Decimal actual) [0x00000] 
  at AccountTest.PortfolioEntryTest.Value_QuoteIsPercent () [0x00000] 
  at (wrapper managed-to-native) System.Reflection.MonoMethod:InternalInvoke (object,object[])
  at System.Reflection.MonoMethod.Invoke (System.Object obj, BindingFlags invokeAttr, System.Reflection.Binder binder, System.Object[] parameters, System.Globalization.CultureInfo culture) [0x00000] </StackTrace>
                  <ConsoleOutput>QuoteIsPercentage = True
Quote value = 80
Number of shares = 2000
Value1 = 1600.0000000000000000000000000
Value2 = 160000
Value = 0
</ConsoleOutput>
                  <ConsoleError />
                </UnitTestResult>
                <UnitTestResult>
                  <TestDate>2008-10-01T17:26:20</TestDate>
                  <Status>Success</Status>
                  <TotalFailures>0</TotalFailures>
                  <TotalSuccess>1</TotalSuccess>
                  <TotalIgnored>0</TotalIgnored>
                  <Time />
                  <ConsoleOutput>QuoteIsPercentage = True
Quote value = 80
Number of shares = 2000
Value1 = 1600.0000000000000000000000000
Value2 = 160000
Value = 0
</ConsoleOutput>
                  <ConsoleError />
                </UnitTestResult>
              </Results>
              <Tests />
            </TestRecord>
            <TestRecord Name="BaseValue">
              <Results>
                <UnitTestResult>
                  <TestDate>2008-10-01T17:14:49+06:00</TestDate>
                  <Status>Success</Status>
                  <TotalFailures>0</TotalFailures>
                  <TotalSuccess>1</TotalSuccess>
                  <TotalIgnored>0</TotalIgnored>
                  <Time />
                  <ConsoleOutput />
                  <ConsoleError />
                </UnitTestResult>
              </Results>
              <Tests />
            </TestRecord>
            <TestRecord Name="ProfitLoss">
              <Results>
                <UnitTestResult>
                  <TestDate>2008-10-01T17:14:49+06:00</TestDate>
                  <Status>Success</Status>
                  <TotalFailures>0</TotalFailures>
                  <TotalSuccess>1</TotalSuccess>
                  <TotalIgnored>0</TotalIgnored>
                  <Time />
                  <ConsoleOutput />
                  <ConsoleError />
                </UnitTestResult>
              </Results>
              <Tests />
            </TestRecord>
            <TestRecord Name="ProfitLoss_Percent_0cost">
              <Results>
                <UnitTestResult>
                  <TestDate>2008-10-01T17:14:49+06:00</TestDate>
                  <Status>Success</Status>
                  <TotalFailures>0</TotalFailures>
                  <TotalSuccess>1</TotalSuccess>
                  <TotalIgnored>0</TotalIgnored>
                  <Time />
                  <ConsoleOutput />
                  <ConsoleError />
                </UnitTestResult>
              </Results>
              <Tests />
            </TestRecord>
            <TestRecord Name="ProfitLoss_Percent">
              <Results>
                <UnitTestResult>
                  <TestDate>2008-10-01T17:14:49+06:00</TestDate>
                  <Status>Success</Status>
                  <TotalFailures>0</TotalFailures>
                  <TotalSuccess>1</TotalSuccess>
                  <TotalIgnored>0</TotalIgnored>
                  <Time />
                  <ConsoleOutput />
                  <ConsoleError />
                </UnitTestResult>
              </Results>
              <Tests />
            </TestRecord>
          </Tests>
        </TestRecord>
      </Tests>
    </TestRecord>
  </Tests>
</TestRecord>